[gd_scene load_steps=2 format=3 uid="uid://dj4o7igmg5d6t"]

[ext_resource type="Script" path="res://src/ui/secondary_info_screen.gd" id="1_4gvbx"]

[node name="PrivacyScreen" type="Node"]
script = ExtResource("1_4gvbx")

[node name="Background" type="ColorRect" parent="."]
anchors_preset = 15
anchor_right = 1.0
anchor_bottom = 1.0
grow_horizontal = 2
grow_vertical = 2
color = Color(0.0431373, 0.027451, 0, 1)

[node name="VBoxContainer" type="VBoxContainer" parent="."]
anchors_preset = 13
anchor_left = 0.5
anchor_right = 0.5
anchor_bottom = 1.0
offset_left = -439.5
offset_right = 439.5
grow_horizontal = 2
grow_vertical = 2

[node name="MarginContainer" type="MarginContainer" parent="VBoxContainer"]
offset_right = 879.0
offset_bottom = 183.0
theme_type_variation = &"BigMarging"

[node name="Title" type="Label" parent="VBoxContainer/MarginContainer"]
offset_left = 336.0
offset_top = 50.0
offset_right = 542.0
offset_bottom = 133.0
size_flags_horizontal = 4
size_flags_vertical = 0
theme_type_variation = &"TitleLabel"
text = "Credits"
horizontal_alignment = 1

[node name="CreditsLabel" type="Label" parent="VBoxContainer"]
offset_left = 213.0
offset_top = 187.0
offset_right = 666.0
offset_bottom = 256.0
size_flags_horizontal = 4
text = "
Revengate was made by Yannick Gingras and contributors.

"

[node name="BackButton" type="Button" parent="VBoxContainer"]
offset_left = 417.0
offset_top = 260.0
offset_right = 462.0
offset_bottom = 291.0
size_flags_horizontal = 4
size_flags_vertical = 8
text = "Back"

[connection signal="pressed" from="VBoxContainer/BackButton" to="." method="_on_back_button_pressed"]
